{
   "preamble" : {
      "cargo" : "recommended_features",
      "title" : "Hardening Flags from Dpkg"
   },
   "recommended_features" : {
      "aix-alpha" : [
         "bindnow",
         "format",
         "fortify",
         "relro"
      ],
      "aix-amd64" : [
         "bindnow",
         "format",
         "fortify",
         "relro",
         "stackprotector",
         "stackprotectorstrong"
      ],
      "aix-arc" : [
         "bindnow",
         "format",
         "fortify",
         "relro",
         "stackprotector",
         "stackprotectorstrong"
      ],
      "aix-arm" : [
         "bindnow",
         "format",
         "fortify",
         "relro",
         "stackprotector",
         "stackprotectorstrong"
      ],
      "aix-arm64" : [
         "bindnow",
         "format",
         "fortify",
         "relro",
         "stackprotector",
         "stackprotectorstrong"
      ],
      "aix-armeb" : [
         "bindnow",
         "format",
         "fortify",
         "relro",
         "stackprotector",
         "stackprotectorstrong"
      ],
      "aix-avr32" : [
         "format",
         "fortify",
         "stackprotector",
         "stackprotectorstrong"
      ],
      "aix-hppa" : [
         "format",
         "fortify"
      ],
      "aix-i386" : [
         "bindnow",
         "format",
         "fortify",
         "relro",
         "stackprotector",
         "stackprotectorstrong"
      ],
      "aix-ia64" : [
         "format",
         "fortify"
      ],
      "aix-loong64" : [
         "bindnow",
         "format",
         "fortify",
         "relro",
         "stackprotector",
         "stackprotectorstrong"
      ],
      "aix-m32r" : [
         "bindnow",
         "format",
         "fortify",
         "relro",
         "stackprotector",
         "stackprotectorstrong"
      ],
      "aix-m68k" : [
         "bindnow",
         "format",
         "fortify",
         "relro",
         "stackprotector",
         "stackprotectorstrong"
      ],
      "aix-mips" : [
         "bindnow",
         "format",
         "fortify",
         "relro",
         "stackprotector",
         "stackprotectorstrong"
      ],
      "aix-mips64" : [
         "bindnow",
         "format",
         "fortify",
         "relro",
         "stackprotector",
         "stackprotectorstrong"
      ],
      "aix-mips64el" : [
         "bindnow",
         "format",
         "fortify",
         "relro",
         "stackprotector",
         "stackprotectorstrong"
      ],
      "aix-mips64r6" : [
         "bindnow",
         "format",
         "fortify",
         "relro",
         "stackprotector",
         "stackprotectorstrong"
      ],
      "aix-mips64r6el" : [
         "bindnow",
         "format",
         "fortify",
         "relro",
         "stackprotector",
         "stackprotectorstrong"
      ],
      "aix-mipsel" : [
         "bindnow",
         "format",
         "fortify",
         "relro",
         "stackprotector",
         "stackprotectorstrong"
      ],
      "aix-mipsr6" : [
         "bindnow",
         "format",
         "fortify",
         "relro",
         "stackprotector",
         "stackprotectorstrong"
      ],
      "aix-mipsr6el" : [
         "bindnow",
         "format",
         "fortify",
         "relro",
         "stackprotector",
         "stackprotectorstrong"
      ],
      "aix-nios2" : [
         "bindnow",
         "format",
         "fortify",
         "relro"
      ],
      "aix-or1k" : [
         "bindnow",
         "format",
         "fortify",
         "relro",
         "stackprotector",
         "stackprotectorstrong"
      ],
      "aix-powerpc" : [
         "bindnow",
         "format",
         "fortify",
         "relro",
         "stackprotector",
         "stackprotectorstrong"
      ],
      "aix-powerpcel" : [
         "bindnow",
         "format",
         "fortify",
         "relro",
         "stackprotector",
         "stackprotectorstrong"
      ],
      "aix-ppc64" : [
         "bindnow",
         "format",
         "fortify",
         "relro",
         "stackprotector",
         "stackprotectorstrong"
      ],
      "aix-ppc64el" : [
         "bindnow",
         "format",
         "fortify",
         "relro",
         "stackprotector",
         "stackprotectorstrong"
      ],
      "aix-riscv64" : [
         "bindnow",
         "format",
         "fortify",
         "relro",
         "stackprotector",
         "stackprotectorstrong"
      ],
      "aix-s390" : [
         "bindnow",
         "format",
         "fortify",
         "relro",
         "stackprotector",
         "stackprotectorstrong"
      ],
      "aix-s390x" : [
         "bindnow",
         "format",
         "fortify",
         "relro",
         "stackprotector",
         "stackprotectorstrong"
      ],
      "aix-sh3" : [
         "bindnow",
         "format",
         "fortify",
         "relro",
         "stackprotector",
         "stackprotectorstrong"
      ],
      "aix-sh3eb" : [
         "bindnow",
         "format",
         "fortify",
         "relro",
         "stackprotector",
         "stackprotectorstrong"
      ],
      "aix-sh4" : [
         "bindnow",
         "format",
         "fortify",
         "relro",
         "stackprotector",
         "stackprotectorstrong"
      ],
      "aix-sh4eb" : [
         "bindnow",
         "format",
         "fortify",
         "relro",
         "stackprotector",
         "stackprotectorstrong"
      ],
      "aix-sparc" : [
         "bindnow",
         "format",
         "fortify",
         "relro",
         "stackprotector",
         "stackprotectorstrong"
      ],
      "aix-sparc64" : [
         "bindnow",
         "format",
         "fortify",
         "relro",
         "stackprotector",
         "stackprotectorstrong"
      ],
      "aix-tilegx" : [
         "bindnow",
         "format",
         "fortify",
         "relro",
         "stackprotector",
         "stackprotectorstrong"
      ],
      "alpha" : [
         "bindnow",
         "format",
         "fortify",
         "pie",
         "relro"
      ],
      "amd64" : [
         "bindnow",
         "format",
         "fortify",
         "pie",
         "relro",
         "stackprotector",
         "stackprotectorstrong"
      ],
      "arc" : [
         "bindnow",
         "format",
         "fortify",
         "pie",
         "relro",
         "stackprotector",
         "stackprotectorstrong"
      ],
      "arm" : [
         "bindnow",
         "format",
         "fortify",
         "pie",
         "relro"
      ],
      "arm64" : [
         "bindnow",
         "format",
         "fortify",
         "pie",
         "relro",
         "stackprotector",
         "stackprotectorstrong"
      ],
      "arm64ilp32" : [
         "bindnow",
         "format",
         "fortify",
         "pie",
         "relro",
         "stackprotector",
         "stackprotectorstrong"
      ],
      "armeb" : [
         "bindnow",
         "format",
         "fortify",
         "pie",
         "relro",
         "stackprotector",
         "stackprotectorstrong"
      ],
      "armel" : [
         "bindnow",
         "format",
         "fortify",
         "pie",
         "relro",
         "stackprotector",
         "stackprotectorstrong"
      ],
      "armhf" : [
         "bindnow",
         "format",
         "fortify",
         "pie",
         "relro",
         "stackprotector",
         "stackprotectorstrong"
      ],
      "avr32" : [
         "format",
         "fortify",
         "stackprotector",
         "stackprotectorstrong"
      ],
      "darwin-alpha" : [
         "bindnow",
         "format",
         "fortify",
         "relro"
      ],
      "darwin-amd64" : [
         "bindnow",
         "format",
         "fortify",
         "relro",
         "stackprotector",
         "stackprotectorstrong"
      ],
      "darwin-arc" : [
         "bindnow",
         "format",
         "fortify",
         "relro",
         "stackprotector",
         "stackprotectorstrong"
      ],
      "darwin-arm" : [
         "bindnow",
         "format",
         "fortify",
         "relro",
         "stackprotector",
         "stackprotectorstrong"
      ],
      "darwin-arm64" : [
         "bindnow",
         "format",
         "fortify",
         "relro",
         "stackprotector",
         "stackprotectorstrong"
      ],
      "darwin-armeb" : [
         "bindnow",
         "format",
         "fortify",
         "relro",
         "stackprotector",
         "stackprotectorstrong"
      ],
      "darwin-avr32" : [
         "format",
         "fortify",
         "stackprotector",
         "stackprotectorstrong"
      ],
      "darwin-hppa" : [
         "format",
         "fortify"
      ],
      "darwin-i386" : [
         "bindnow",
         "format",
         "fortify",
         "relro",
         "stackprotector",
         "stackprotectorstrong"
      ],
      "darwin-ia64" : [
         "format",
         "fortify"
      ],
      "darwin-loong64" : [
         "bindnow",
         "format",
         "fortify",
         "relro",
         "stackprotector",
         "stackprotectorstrong"
      ],
      "darwin-m32r" : [
         "bindnow",
         "format",
         "fortify",
         "relro",
         "stackprotector",
         "stackprotectorstrong"
      ],
      "darwin-m68k" : [
         "bindnow",
         "format",
         "fortify",
         "relro",
         "stackprotector",
         "stackprotectorstrong"
      ],
      "darwin-mips" : [
         "bindnow",
         "format",
         "fortify",
         "relro",
         "stackprotector",
         "stackprotectorstrong"
      ],
      "darwin-mips64" : [
         "bindnow",
         "format",
         "fortify",
         "relro",
         "stackprotector",
         "stackprotectorstrong"
      ],
      "darwin-mips64el" : [
         "bindnow",
         "format",
         "fortify",
         "relro",
         "stackprotector",
         "stackprotectorstrong"
      ],
      "darwin-mips64r6" : [
         "bindnow",
         "format",
         "fortify",
         "relro",
         "stackprotector",
         "stackprotectorstrong"
      ],
      "darwin-mips64r6el" : [
         "bindnow",
         "format",
         "fortify",
         "relro",
         "stackprotector",
         "stackprotectorstrong"
      ],
      "darwin-mipsel" : [
         "bindnow",
         "format",
         "fortify",
         "relro",
         "stackprotector",
         "stackprotectorstrong"
      ],
      "darwin-mipsr6" : [
         "bindnow",
         "format",
         "fortify",
         "relro",
         "stackprotector",
         "stackprotectorstrong"
      ],
      "darwin-mipsr6el" : [
         "bindnow",
         "format",
         "fortify",
         "relro",
         "stackprotector",
         "stackprotectorstrong"
      ],
      "darwin-nios2" : [
         "bindnow",
         "format",
         "fortify",
         "relro"
      ],
      "darwin-or1k" : [
         "bindnow",
         "format",
         "fortify",
         "relro",
         "stackprotector",
         "stackprotectorstrong"
      ],
      "darwin-powerpc" : [
         "bindnow",
         "format",
         "fortify",
         "relro",
         "stackprotector",
         "stackprotectorstrong"
      ],
      "darwin-powerpcel" : [
         "bindnow",
         "format",
         "fortify",
         "relro",
         "stackprotector",
         "stackprotectorstrong"
      ],
      "darwin-ppc64" : [
         "bindnow",
         "format",
         "fortify",
         "relro",
         "stackprotector",
         "stackprotectorstrong"
      ],
      "darwin-ppc64el" : [
         "bindnow",
         "format",
         "fortify",
         "relro",
         "stackprotector",
         "stackprotectorstrong"
      ],
      "darwin-riscv64" : [
         "bindnow",
         "format",
         "fortify",
         "relro",
         "stackprotector",
         "stackprotectorstrong"
      ],
      "darwin-s390" : [
         "bindnow",
         "format",
         "fortify",
         "relro",
         "stackprotector",
         "stackprotectorstrong"
      ],
      "darwin-s390x" : [
         "bindnow",
         "format",
         "fortify",
         "relro",
         "stackprotector",
         "stackprotectorstrong"
      ],
      "darwin-sh3" : [
         "bindnow",
         "format",
         "fortify",
         "relro",
         "stackprotector",
         "stackprotectorstrong"
      ],
      "darwin-sh3eb" : [
         "bindnow",
         "format",
         "fortify",
         "relro",
         "stackprotector",
         "stackprotectorstrong"
      ],
      "darwin-sh4" : [
         "bindnow",
         "format",
         "fortify",
         "relro",
         "stackprotector",
         "stackprotectorstrong"
      ],
      "darwin-sh4eb" : [
         "bindnow",
         "format",
         "fortify",
         "relro",
         "stackprotector",
         "stackprotectorstrong"
      ],
      "darwin-sparc" : [
         "bindnow",
         "format",
         "fortify",
         "relro",
         "stackprotector",
         "stackprotectorstrong"
      ],
      "darwin-sparc64" : [
         "bindnow",
         "format",
         "fortify",
         "relro",
         "stackprotector",
         "stackprotectorstrong"
      ],
      "darwin-tilegx" : [
         "bindnow",
         "format",
         "fortify",
         "relro",
         "stackprotector",
         "stackprotectorstrong"
      ],
      "dragonflybsd-alpha" : [
         "bindnow",
         "format",
         "fortify",
         "relro"
      ],
      "dragonflybsd-amd64" : [
         "bindnow",
         "format",
         "fortify",
         "relro",
         "stackprotector",
         "stackprotectorstrong"
      ],
      "dragonflybsd-arc" : [
         "bindnow",
         "format",
         "fortify",
         "relro",
         "stackprotector",
         "stackprotectorstrong"
      ],
      "dragonflybsd-arm" : [
         "bindnow",
         "format",
         "fortify",
         "relro",
         "stackprotector",
         "stackprotectorstrong"
      ],
      "dragonflybsd-arm64" : [
         "bindnow",
         "format",
         "fortify",
         "relro",
         "stackprotector",
         "stackprotectorstrong"
      ],
      "dragonflybsd-armeb" : [
         "bindnow",
         "format",
         "fortify",
         "relro",
         "stackprotector",
         "stackprotectorstrong"
      ],
      "dragonflybsd-avr32" : [
         "format",
         "fortify",
         "stackprotector",
         "stackprotectorstrong"
      ],
      "dragonflybsd-hppa" : [
         "format",
         "fortify"
      ],
      "dragonflybsd-i386" : [
         "bindnow",
         "format",
         "fortify",
         "relro",
         "stackprotector",
         "stackprotectorstrong"
      ],
      "dragonflybsd-ia64" : [
         "format",
         "fortify"
      ],
      "dragonflybsd-loong64" : [
         "bindnow",
         "format",
         "fortify",
         "relro",
         "stackprotector",
         "stackprotectorstrong"
      ],
      "dragonflybsd-m32r" : [
         "bindnow",
         "format",
         "fortify",
         "relro",
         "stackprotector",
         "stackprotectorstrong"
      ],
      "dragonflybsd-m68k" : [
         "bindnow",
         "format",
         "fortify",
         "relro",
         "stackprotector",
         "stackprotectorstrong"
      ],
      "dragonflybsd-mips" : [
         "bindnow",
         "format",
         "fortify",
         "relro",
         "stackprotector",
         "stackprotectorstrong"
      ],
      "dragonflybsd-mips64" : [
         "bindnow",
         "format",
         "fortify",
         "relro",
         "stackprotector",
         "stackprotectorstrong"
      ],
      "dragonflybsd-mips64el" : [
         "bindnow",
         "format",
         "fortify",
         "relro",
         "stackprotector",
         "stackprotectorstrong"
      ],
      "dragonflybsd-mips64r6" : [
         "bindnow",
         "format",
         "fortify",
         "relro",
         "stackprotector",
         "stackprotectorstrong"
      ],
      "dragonflybsd-mips64r6el" : [
         "bindnow",
         "format",
         "fortify",
         "relro",
         "stackprotector",
         "stackprotectorstrong"
      ],
      "dragonflybsd-mipsel" : [
         "bindnow",
         "format",
         "fortify",
         "relro",
         "stackprotector",
         "stackprotectorstrong"
      ],
      "dragonflybsd-mipsr6" : [
         "bindnow",
         "format",
         "fortify",
         "relro",
         "stackprotector",
         "stackprotectorstrong"
      ],
      "dragonflybsd-mipsr6el" : [
         "bindnow",
         "format",
         "fortify",
         "relro",
         "stackprotector",
         "stackprotectorstrong"
      ],
      "dragonflybsd-nios2" : [
         "bindnow",
         "format",
         "fortify",
         "relro"
      ],
      "dragonflybsd-or1k" : [
         "bindnow",
         "format",
         "fortify",
         "relro",
         "stackprotector",
         "stackprotectorstrong"
      ],
      "dragonflybsd-powerpc" : [
         "bindnow",
         "format",
         "fortify",
         "relro",
         "stackprotector",
         "stackprotectorstrong"
      ],
      "dragonflybsd-powerpcel" : [
         "bindnow",
         "format",
         "fortify",
         "relro",
         "stackprotector",
         "stackprotectorstrong"
      ],
      "dragonflybsd-ppc64" : [
         "bindnow",
         "format",
         "fortify",
         "relro",
         "stackprotector",
         "stackprotectorstrong"
      ],
      "dragonflybsd-ppc64el" : [
         "bindnow",
         "format",
         "fortify",
         "relro",
         "stackprotector",
         "stackprotectorstrong"
      ],
      "dragonflybsd-riscv64" : [
         "bindnow",
         "format",
         "fortify",
         "relro",
         "stackprotector",
         "stackprotectorstrong"
      ],
      "dragonflybsd-s390" : [
         "bindnow",
         "format",
         "fortify",
         "relro",
         "stackprotector",
         "stackprotectorstrong"
      ],
      "dragonflybsd-s390x" : [
         "bindnow",
         "format",
         "fortify",
         "relro",
         "stackprotector",
         "stackprotectorstrong"
      ],
      "dragonflybsd-sh3" : [
         "bindnow",
         "format",
         "fortify",
         "relro",
         "stackprotector",
         "stackprotectorstrong"
      ],
      "dragonflybsd-sh3eb" : [
         "bindnow",
         "format",
         "fortify",
         "relro",
         "stackprotector",
         "stackprotectorstrong"
      ],
      "dragonflybsd-sh4" : [
         "bindnow",
         "format",
         "fortify",
         "relro",
         "stackprotector",
         "stackprotectorstrong"
      ],
      "dragonflybsd-sh4eb" : [
         "bindnow",
         "format",
         "fortify",
         "relro",
         "stackprotector",
         "stackprotectorstrong"
      ],
      "dragonflybsd-sparc" : [
         "bindnow",
         "format",
         "fortify",
         "relro",
         "stackprotector",
         "stackprotectorstrong"
      ],
      "dragonflybsd-sparc64" : [
         "bindnow",
         "format",
         "fortify",
         "relro",
         "stackprotector",
         "stackprotectorstrong"
      ],
      "dragonflybsd-tilegx" : [
         "bindnow",
         "format",
         "fortify",
         "relro",
         "stackprotector",
         "stackprotectorstrong"
      ],
      "freebsd-alpha" : [
         "bindnow",
         "format",
         "fortify",
         "relro"
      ],
      "freebsd-amd64" : [
         "bindnow",
         "format",
         "fortify",
         "relro",
         "stackprotector",
         "stackprotectorstrong"
      ],
      "freebsd-arc" : [
         "bindnow",
         "format",
         "fortify",
         "relro",
         "stackprotector",
         "stackprotectorstrong"
      ],
      "freebsd-arm" : [
         "bindnow",
         "format",
         "fortify",
         "relro",
         "stackprotector",
         "stackprotectorstrong"
      ],
      "freebsd-arm64" : [
         "bindnow",
         "format",
         "fortify",
         "relro",
         "stackprotector",
         "stackprotectorstrong"
      ],
      "freebsd-armeb" : [
         "bindnow",
         "format",
         "fortify",
         "relro",
         "stackprotector",
         "stackprotectorstrong"
      ],
      "freebsd-avr32" : [
         "format",
         "fortify",
         "stackprotector",
         "stackprotectorstrong"
      ],
      "freebsd-hppa" : [
         "format",
         "fortify"
      ],
      "freebsd-i386" : [
         "bindnow",
         "format",
         "fortify",
         "relro",
         "stackprotector",
         "stackprotectorstrong"
      ],
      "freebsd-ia64" : [
         "format",
         "fortify"
      ],
      "freebsd-loong64" : [
         "bindnow",
         "format",
         "fortify",
         "relro",
         "stackprotector",
         "stackprotectorstrong"
      ],
      "freebsd-m32r" : [
         "bindnow",
         "format",
         "fortify",
         "relro",
         "stackprotector",
         "stackprotectorstrong"
      ],
      "freebsd-m68k" : [
         "bindnow",
         "format",
         "fortify",
         "relro",
         "stackprotector",
         "stackprotectorstrong"
      ],
      "freebsd-mips" : [
         "bindnow",
         "format",
         "fortify",
         "relro",
         "stackprotector",
         "stackprotectorstrong"
      ],
      "freebsd-mips64" : [
         "bindnow",
         "format",
         "fortify",
         "relro",
         "stackprotector",
         "stackprotectorstrong"
      ],
      "freebsd-mips64el" : [
         "bindnow",
         "format",
         "fortify",
         "relro",
         "stackprotector",
         "stackprotectorstrong"
      ],
      "freebsd-mips64r6" : [
         "bindnow",
         "format",
         "fortify",
         "relro",
         "stackprotector",
         "stackprotectorstrong"
      ],
      "freebsd-mips64r6el" : [
         "bindnow",
         "format",
         "fortify",
         "relro",
         "stackprotector",
         "stackprotectorstrong"
      ],
      "freebsd-mipsel" : [
         "bindnow",
         "format",
         "fortify",
         "relro",
         "stackprotector",
         "stackprotectorstrong"
      ],
      "freebsd-mipsr6" : [
         "bindnow",
         "format",
         "fortify",
         "relro",
         "stackprotector",
         "stackprotectorstrong"
      ],
      "freebsd-mipsr6el" : [
         "bindnow",
         "format",
         "fortify",
         "relro",
         "stackprotector",
         "stackprotectorstrong"
      ],
      "freebsd-nios2" : [
         "bindnow",
         "format",
         "fortify",
         "relro"
      ],
      "freebsd-or1k" : [
         "bindnow",
         "format",
         "fortify",
         "relro",
         "stackprotector",
         "stackprotectorstrong"
      ],
      "freebsd-powerpc" : [
         "bindnow",
         "format",
         "fortify",
         "relro",
         "stackprotector",
         "stackprotectorstrong"
      ],
      "freebsd-powerpcel" : [
         "bindnow",
         "format",
         "fortify",
         "relro",
         "stackprotector",
         "stackprotectorstrong"
      ],
      "freebsd-ppc64" : [
         "bindnow",
         "format",
         "fortify",
         "relro",
         "stackprotector",
         "stackprotectorstrong"
      ],
      "freebsd-ppc64el" : [
         "bindnow",
         "format",
         "fortify",
         "relro",
         "stackprotector",
         "stackprotectorstrong"
      ],
      "freebsd-riscv64" : [
         "bindnow",
         "format",
         "fortify",
         "relro",
         "stackprotector",
         "stackprotectorstrong"
      ],
      "freebsd-s390" : [
         "bindnow",
         "format",
         "fortify",
         "relro",
         "stackprotector",
         "stackprotectorstrong"
      ],
      "freebsd-s390x" : [
         "bindnow",
         "format",
         "fortify",
         "relro",
         "stackprotector",
         "stackprotectorstrong"
      ],
      "freebsd-sh3" : [
         "bindnow",
         "format",
         "fortify",
         "relro",
         "stackprotector",
         "stackprotectorstrong"
      ],
      "freebsd-sh3eb" : [
         "bindnow",
         "format",
         "fortify",
         "relro",
         "stackprotector",
         "stackprotectorstrong"
      ],
      "freebsd-sh4" : [
         "bindnow",
         "format",
         "fortify",
         "relro",
         "stackprotector",
         "stackprotectorstrong"
      ],
      "freebsd-sh4eb" : [
         "bindnow",
         "format",
         "fortify",
         "relro",
         "stackprotector",
         "stackprotectorstrong"
      ],
      "freebsd-sparc" : [
         "bindnow",
         "format",
         "fortify",
         "relro",
         "stackprotector",
         "stackprotectorstrong"
      ],
      "freebsd-sparc64" : [
         "bindnow",
         "format",
         "fortify",
         "relro",
         "stackprotector",
         "stackprotectorstrong"
      ],
      "freebsd-tilegx" : [
         "bindnow",
         "format",
         "fortify",
         "relro",
         "stackprotector",
         "stackprotectorstrong"
      ],
      "hppa" : [
         "format",
         "fortify"
      ],
      "hurd-alpha" : [
         "bindnow",
         "format",
         "fortify",
         "pie",
         "relro"
      ],
      "hurd-amd64" : [
         "bindnow",
         "format",
         "fortify",
         "pie",
         "relro",
         "stackprotector",
         "stackprotectorstrong"
      ],
      "hurd-arc" : [
         "bindnow",
         "format",
         "fortify",
         "pie",
         "relro",
         "stackprotector",
         "stackprotectorstrong"
      ],
      "hurd-arm" : [
         "bindnow",
         "format",
         "fortify",
         "pie",
         "relro",
         "stackprotector",
         "stackprotectorstrong"
      ],
      "hurd-arm64" : [
         "bindnow",
         "format",
         "fortify",
         "pie",
         "relro",
         "stackprotector",
         "stackprotectorstrong"
      ],
      "hurd-armeb" : [
         "bindnow",
         "format",
         "fortify",
         "pie",
         "relro",
         "stackprotector",
         "stackprotectorstrong"
      ],
      "hurd-avr32" : [
         "format",
         "fortify",
         "stackprotector",
         "stackprotectorstrong"
      ],
      "hurd-hppa" : [
         "format",
         "fortify"
      ],
      "hurd-i386" : [
         "bindnow",
         "format",
         "fortify",
         "pie",
         "relro",
         "stackprotector",
         "stackprotectorstrong"
      ],
      "hurd-ia64" : [
         "format",
         "fortify",
         "pie"
      ],
      "hurd-loong64" : [
         "bindnow",
         "format",
         "fortify",
         "pie",
         "relro",
         "stackprotector",
         "stackprotectorstrong"
      ],
      "hurd-m32r" : [
         "bindnow",
         "format",
         "fortify",
         "pie",
         "relro",
         "stackprotector",
         "stackprotectorstrong"
      ],
      "hurd-m68k" : [
         "bindnow",
         "format",
         "fortify",
         "pie",
         "relro",
         "stackprotector",
         "stackprotectorstrong"
      ],
      "hurd-mips" : [
         "bindnow",
         "format",
         "fortify",
         "pie",
         "relro",
         "stackprotector",
         "stackprotectorstrong"
      ],
      "hurd-mips64" : [
         "bindnow",
         "format",
         "fortify",
         "pie",
         "relro",
         "stackprotector",
         "stackprotectorstrong"
      ],
      "hurd-mips64el" : [
         "bindnow",
         "format",
         "fortify",
         "pie",
         "relro",
         "stackprotector",
         "stackprotectorstrong"
      ],
      "hurd-mips64r6" : [
         "bindnow",
         "format",
         "fortify",
         "pie",
         "relro",
         "stackprotector",
         "stackprotectorstrong"
      ],
      "hurd-mips64r6el" : [
         "bindnow",
         "format",
         "fortify",
         "pie",
         "relro",
         "stackprotector",
         "stackprotectorstrong"
      ],
      "hurd-mipsel" : [
         "bindnow",
         "format",
         "fortify",
         "pie",
         "relro",
         "stackprotector",
         "stackprotectorstrong"
      ],
      "hurd-mipsr6" : [
         "bindnow",
         "format",
         "fortify",
         "pie",
         "relro",
         "stackprotector",
         "stackprotectorstrong"
      ],
      "hurd-mipsr6el" : [
         "bindnow",
         "format",
         "fortify",
         "pie",
         "relro",
         "stackprotector",
         "stackprotectorstrong"
      ],
      "hurd-nios2" : [
         "bindnow",
         "format",
         "fortify",
         "pie",
         "relro"
      ],
      "hurd-or1k" : [
         "bindnow",
         "format",
         "fortify",
         "pie",
         "relro",
         "stackprotector",
         "stackprotectorstrong"
      ],
      "hurd-powerpc" : [
         "bindnow",
         "format",
         "fortify",
         "pie",
         "relro",
         "stackprotector",
         "stackprotectorstrong"
      ],
      "hurd-powerpcel" : [
         "bindnow",
         "format",
         "fortify",
         "pie",
         "relro",
         "stackprotector",
         "stackprotectorstrong"
      ],
      "hurd-ppc64" : [
         "bindnow",
         "format",
         "fortify",
         "pie",
         "relro",
         "stackprotector",
         "stackprotectorstrong"
      ],
      "hurd-ppc64el" : [
         "bindnow",
         "format",
         "fortify",
         "pie",
         "relro",
         "stackprotector",
         "stackprotectorstrong"
      ],
      "hurd-riscv64" : [
         "bindnow",
         "format",
         "fortify",
         "pie",
         "relro",
         "stackprotector",
         "stackprotectorstrong"
      ],
      "hurd-s390" : [
         "bindnow",
         "format",
         "fortify",
         "pie",
         "relro",
         "stackprotector",
         "stackprotectorstrong"
      ],
      "hurd-s390x" : [
         "bindnow",
         "format",
         "fortify",
         "pie",
         "relro",
         "stackprotector",
         "stackprotectorstrong"
      ],
      "hurd-sh3" : [
         "bindnow",
         "format",
         "fortify",
         "pie",
         "relro",
         "stackprotector",
         "stackprotectorstrong"
      ],
      "hurd-sh3eb" : [
         "bindnow",
         "format",
         "fortify",
         "pie",
         "relro",
         "stackprotector",
         "stackprotectorstrong"
      ],
      "hurd-sh4" : [
         "bindnow",
         "format",
         "fortify",
         "pie",
         "relro",
         "stackprotector",
         "stackprotectorstrong"
      ],
      "hurd-sh4eb" : [
         "bindnow",
         "format",
         "fortify",
         "pie",
         "relro",
         "stackprotector",
         "stackprotectorstrong"
      ],
      "hurd-sparc" : [
         "bindnow",
         "format",
         "fortify",
         "pie",
         "relro",
         "stackprotector",
         "stackprotectorstrong"
      ],
      "hurd-sparc64" : [
         "bindnow",
         "format",
         "fortify",
         "pie",
         "relro",
         "stackprotector",
         "stackprotectorstrong"
      ],
      "hurd-tilegx" : [
         "bindnow",
         "format",
         "fortify",
         "pie",
         "relro",
         "stackprotector",
         "stackprotectorstrong"
      ],
      "i386" : [
         "bindnow",
         "format",
         "fortify",
         "pie",
         "relro",
         "stackprotector",
         "stackprotectorstrong"
      ],
      "ia64" : [
         "format",
         "fortify",
         "pie"
      ],
      "kfreebsd-alpha" : [
         "bindnow",
         "format",
         "fortify",
         "pie",
         "relro"
      ],
      "kfreebsd-amd64" : [
         "bindnow",
         "format",
         "fortify",
         "pie",
         "relro",
         "stackprotector",
         "stackprotectorstrong"
      ],
      "kfreebsd-arc" : [
         "bindnow",
         "format",
         "fortify",
         "pie",
         "relro",
         "stackprotector",
         "stackprotectorstrong"
      ],
      "kfreebsd-arm" : [
         "bindnow",
         "format",
         "fortify",
         "pie",
         "relro",
         "stackprotector",
         "stackprotectorstrong"
      ],
      "kfreebsd-arm64" : [
         "bindnow",
         "format",
         "fortify",
         "pie",
         "relro",
         "stackprotector",
         "stackprotectorstrong"
      ],
      "kfreebsd-armeb" : [
         "bindnow",
         "format",
         "fortify",
         "pie",
         "relro",
         "stackprotector",
         "stackprotectorstrong"
      ],
      "kfreebsd-armhf" : [
         "bindnow",
         "format",
         "fortify",
         "pie",
         "relro",
         "stackprotector",
         "stackprotectorstrong"
      ],
      "kfreebsd-avr32" : [
         "format",
         "fortify",
         "stackprotector",
         "stackprotectorstrong"
      ],
      "kfreebsd-hppa" : [
         "format",
         "fortify"
      ],
      "kfreebsd-i386" : [
         "bindnow",
         "format",
         "fortify",
         "pie",
         "relro",
         "stackprotector",
         "stackprotectorstrong"
      ],
      "kfreebsd-ia64" : [
         "format",
         "fortify",
         "pie"
      ],
      "kfreebsd-loong64" : [
         "bindnow",
         "format",
         "fortify",
         "pie",
         "relro",
         "stackprotector",
         "stackprotectorstrong"
      ],
      "kfreebsd-m32r" : [
         "bindnow",
         "format",
         "fortify",
         "pie",
         "relro",
         "stackprotector",
         "stackprotectorstrong"
      ],
      "kfreebsd-m68k" : [
         "bindnow",
         "format",
         "fortify",
         "pie",
         "relro",
         "stackprotector",
         "stackprotectorstrong"
      ],
      "kfreebsd-mips" : [
         "bindnow",
         "format",
         "fortify",
         "pie",
         "relro",
         "stackprotector",
         "stackprotectorstrong"
      ],
      "kfreebsd-mips64" : [
         "bindnow",
         "format",
         "fortify",
         "pie",
         "relro",
         "stackprotector",
         "stackprotectorstrong"
      ],
      "kfreebsd-mips64el" : [
         "bindnow",
         "format",
         "fortify",
         "pie",
         "relro",
         "stackprotector",
         "stackprotectorstrong"
      ],
      "kfreebsd-mips64r6" : [
         "bindnow",
         "format",
         "fortify",
         "pie",
         "relro",
         "stackprotector",
         "stackprotectorstrong"
      ],
      "kfreebsd-mips64r6el" : [
         "bindnow",
         "format",
         "fortify",
         "pie",
         "relro",
         "stackprotector",
         "stackprotectorstrong"
      ],
      "kfreebsd-mipsel" : [
         "bindnow",
         "format",
         "fortify",
         "pie",
         "relro",
         "stackprotector",
         "stackprotectorstrong"
      ],
      "kfreebsd-mipsr6" : [
         "bindnow",
         "format",
         "fortify",
         "pie",
         "relro",
         "stackprotector",
         "stackprotectorstrong"
      ],
      "kfreebsd-mipsr6el" : [
         "bindnow",
         "format",
         "fortify",
         "pie",
         "relro",
         "stackprotector",
         "stackprotectorstrong"
      ],
      "kfreebsd-nios2" : [
         "bindnow",
         "format",
         "fortify",
         "pie",
         "relro"
      ],
      "kfreebsd-or1k" : [
         "bindnow",
         "format",
         "fortify",
         "pie",
         "relro",
         "stackprotector",
         "stackprotectorstrong"
      ],
      "kfreebsd-powerpc" : [
         "bindnow",
         "format",
         "fortify",
         "pie",
         "relro",
         "stackprotector",
         "stackprotectorstrong"
      ],
      "kfreebsd-powerpcel" : [
         "bindnow",
         "format",
         "fortify",
         "pie",
         "relro",
         "stackprotector",
         "stackprotectorstrong"
      ],
      "kfreebsd-ppc64" : [
         "bindnow",
         "format",
         "fortify",
         "pie",
         "relro",
         "stackprotector",
         "stackprotectorstrong"
      ],
      "kfreebsd-ppc64el" : [
         "bindnow",
         "format",
         "fortify",
         "pie",
         "relro",
         "stackprotector",
         "stackprotectorstrong"
      ],
      "kfreebsd-riscv64" : [
         "bindnow",
         "format",
         "fortify",
         "pie",
         "relro",
         "stackprotector",
         "stackprotectorstrong"
      ],
      "kfreebsd-s390" : [
         "bindnow",
         "format",
         "fortify",
         "pie",
         "relro",
         "stackprotector",
         "stackprotectorstrong"
      ],
      "kfreebsd-s390x" : [
         "bindnow",
         "format",
         "fortify",
         "pie",
         "relro",
         "stackprotector",
         "stackprotectorstrong"
      ],
      "kfreebsd-sh3" : [
         "bindnow",
         "format",
         "fortify",
         "pie",
         "relro",
         "stackprotector",
         "stackprotectorstrong"
      ],
      "kfreebsd-sh3eb" : [
         "bindnow",
         "format",
         "fortify",
         "pie",
         "relro",
         "stackprotector",
         "stackprotectorstrong"
      ],
      "kfreebsd-sh4" : [
         "bindnow",
         "format",
         "fortify",
         "pie",
         "relro",
         "stackprotector",
         "stackprotectorstrong"
      ],
      "kfreebsd-sh4eb" : [
         "bindnow",
         "format",
         "fortify",
         "pie",
         "relro",
         "stackprotector",
         "stackprotectorstrong"
      ],
      "kfreebsd-sparc" : [
         "bindnow",
         "format",
         "fortify",
         "pie",
         "relro",
         "stackprotector",
         "stackprotectorstrong"
      ],
      "kfreebsd-sparc64" : [
         "bindnow",
         "format",
         "fortify",
         "pie",
         "relro",
         "stackprotector",
         "stackprotectorstrong"
      ],
      "kfreebsd-tilegx" : [
         "bindnow",
         "format",
         "fortify",
         "pie",
         "relro",
         "stackprotector",
         "stackprotectorstrong"
      ],
      "knetbsd-alpha" : [
         "bindnow",
         "format",
         "fortify",
         "pie",
         "relro"
      ],
      "knetbsd-amd64" : [
         "bindnow",
         "format",
         "fortify",
         "pie",
         "relro",
         "stackprotector",
         "stackprotectorstrong"
      ],
      "knetbsd-arc" : [
         "bindnow",
         "format",
         "fortify",
         "pie",
         "relro",
         "stackprotector",
         "stackprotectorstrong"
      ],
      "knetbsd-arm" : [
         "bindnow",
         "format",
         "fortify",
         "pie",
         "relro",
         "stackprotector",
         "stackprotectorstrong"
      ],
      "knetbsd-arm64" : [
         "bindnow",
         "format",
         "fortify",
         "pie",
         "relro",
         "stackprotector",
         "stackprotectorstrong"
      ],
      "knetbsd-armeb" : [
         "bindnow",
         "format",
         "fortify",
         "pie",
         "relro",
         "stackprotector",
         "stackprotectorstrong"
      ],
      "knetbsd-avr32" : [
         "format",
         "fortify",
         "stackprotector",
         "stackprotectorstrong"
      ],
      "knetbsd-hppa" : [
         "format",
         "fortify"
      ],
      "knetbsd-i386" : [
         "bindnow",
         "format",
         "fortify",
         "pie",
         "relro",
         "stackprotector",
         "stackprotectorstrong"
      ],
      "knetbsd-ia64" : [
         "format",
         "fortify",
         "pie"
      ],
      "knetbsd-loong64" : [
         "bindnow",
         "format",
         "fortify",
         "pie",
         "relro",
         "stackprotector",
         "stackprotectorstrong"
      ],
      "knetbsd-m32r" : [
         "bindnow",
         "format",
         "fortify",
         "pie",
         "relro",
         "stackprotector",
         "stackprotectorstrong"
      ],
      "knetbsd-m68k" : [
         "bindnow",
         "format",
         "fortify",
         "pie",
         "relro",
         "stackprotector",
         "stackprotectorstrong"
      ],
      "knetbsd-mips" : [
         "bindnow",
         "format",
         "fortify",
         "pie",
         "relro",
         "stackprotector",
         "stackprotectorstrong"
      ],
      "knetbsd-mips64" : [
         "bindnow",
         "format",
         "fortify",
         "pie",
         "relro",
         "stackprotector",
         "stackprotectorstrong"
      ],
      "knetbsd-mips64el" : [
         "bindnow",
         "format",
         "fortify",
         "pie",
         "relro",
         "stackprotector",
         "stackprotectorstrong"
      ],
      "knetbsd-mips64r6" : [
         "bindnow",
         "format",
         "fortify",
         "pie",
         "relro",
         "stackprotector",
         "stackprotectorstrong"
      ],
      "knetbsd-mips64r6el" : [
         "bindnow",
         "format",
         "fortify",
         "pie",
         "relro",
         "stackprotector",
         "stackprotectorstrong"
      ],
      "knetbsd-mipsel" : [
         "bindnow",
         "format",
         "fortify",
         "pie",
         "relro",
         "stackprotector",
         "stackprotectorstrong"
      ],
      "knetbsd-mipsr6" : [
         "bindnow",
         "format",
         "fortify",
         "pie",
         "relro",
         "stackprotector",
         "stackprotectorstrong"
      ],
      "knetbsd-mipsr6el" : [
         "bindnow",
         "format",
         "fortify",
         "pie",
         "relro",
         "stackprotector",
         "stackprotectorstrong"
      ],
      "knetbsd-nios2" : [
         "bindnow",
         "format",
         "fortify",
         "pie",
         "relro"
      ],
      "knetbsd-or1k" : [
         "bindnow",
         "format",
         "fortify",
         "pie",
         "relro",
         "stackprotector",
         "stackprotectorstrong"
      ],
      "knetbsd-powerpc" : [
         "bindnow",
         "format",
         "fortify",
         "pie",
         "relro",
         "stackprotector",
         "stackprotectorstrong"
      ],
      "knetbsd-powerpcel" : [
         "bindnow",
         "format",
         "fortify",
         "pie",
         "relro",
         "stackprotector",
         "stackprotectorstrong"
      ],
      "knetbsd-ppc64" : [
         "bindnow",
         "format",
         "fortify",
         "pie",
         "relro",
         "stackprotector",
         "stackprotectorstrong"
      ],
      "knetbsd-ppc64el" : [
         "bindnow",
         "format",
         "fortify",
         "pie",
         "relro",
         "stackprotector",
         "stackprotectorstrong"
      ],
      "knetbsd-riscv64" : [
         "bindnow",
         "format",
         "fortify",
         "pie",
         "relro",
         "stackprotector",
         "stackprotectorstrong"
      ],
      "knetbsd-s390" : [
         "bindnow",
         "format",
         "fortify",
         "pie",
         "relro",
         "stackprotector",
         "stackprotectorstrong"
      ],
      "knetbsd-s390x" : [
         "bindnow",
         "format",
         "fortify",
         "pie",
         "relro",
         "stackprotector",
         "stackprotectorstrong"
      ],
      "knetbsd-sh3" : [
         "bindnow",
         "format",
         "fortify",
         "pie",
         "relro",
         "stackprotector",
         "stackprotectorstrong"
      ],
      "knetbsd-sh3eb" : [
         "bindnow",
         "format",
         "fortify",
         "pie",
         "relro",
         "stackprotector",
         "stackprotectorstrong"
      ],
      "knetbsd-sh4" : [
         "bindnow",
         "format",
         "fortify",
         "pie",
         "relro",
         "stackprotector",
         "stackprotectorstrong"
      ],
      "knetbsd-sh4eb" : [
         "bindnow",
         "format",
         "fortify",
         "pie",
         "relro",
         "stackprotector",
         "stackprotectorstrong"
      ],
      "knetbsd-sparc" : [
         "bindnow",
         "format",
         "fortify",
         "pie",
         "relro",
         "stackprotector",
         "stackprotectorstrong"
      ],
      "knetbsd-sparc64" : [
         "bindnow",
         "format",
         "fortify",
         "pie",
         "relro",
         "stackprotector",
         "stackprotectorstrong"
      ],
      "knetbsd-tilegx" : [
         "bindnow",
         "format",
         "fortify",
         "pie",
         "relro",
         "stackprotector",
         "stackprotectorstrong"
      ],
      "kopensolaris-alpha" : [
         "bindnow",
         "format",
         "fortify",
         "relro"
      ],
      "kopensolaris-amd64" : [
         "bindnow",
         "format",
         "fortify",
         "relro",
         "stackprotector",
         "stackprotectorstrong"
      ],
      "kopensolaris-arc" : [
         "bindnow",
         "format",
         "fortify",
         "relro",
         "stackprotector",
         "stackprotectorstrong"
      ],
      "kopensolaris-arm" : [
         "bindnow",
         "format",
         "fortify",
         "relro",
         "stackprotector",
         "stackprotectorstrong"
      ],
      "kopensolaris-arm64" : [
         "bindnow",
         "format",
         "fortify",
         "relro",
         "stackprotector",
         "stackprotectorstrong"
      ],
      "kopensolaris-armeb" : [
         "bindnow",
         "format",
         "fortify",
         "relro",
         "stackprotector",
         "stackprotectorstrong"
      ],
      "kopensolaris-avr32" : [
         "format",
         "fortify",
         "stackprotector",
         "stackprotectorstrong"
      ],
      "kopensolaris-hppa" : [
         "format",
         "fortify"
      ],
      "kopensolaris-i386" : [
         "bindnow",
         "format",
         "fortify",
         "relro",
         "stackprotector",
         "stackprotectorstrong"
      ],
      "kopensolaris-ia64" : [
         "format",
         "fortify"
      ],
      "kopensolaris-loong64" : [
         "bindnow",
         "format",
         "fortify",
         "relro",
         "stackprotector",
         "stackprotectorstrong"
      ],
      "kopensolaris-m32r" : [
         "bindnow",
         "format",
         "fortify",
         "relro",
         "stackprotector",
         "stackprotectorstrong"
      ],
      "kopensolaris-m68k" : [
         "bindnow",
         "format",
         "fortify",
         "relro",
         "stackprotector",
         "stackprotectorstrong"
      ],
      "kopensolaris-mips" : [
         "bindnow",
         "format",
         "fortify",
         "relro",
         "stackprotector",
         "stackprotectorstrong"
      ],
      "kopensolaris-mips64" : [
         "bindnow",
         "format",
         "fortify",
         "relro",
         "stackprotector",
         "stackprotectorstrong"
      ],
      "kopensolaris-mips64el" : [
         "bindnow",
         "format",
         "fortify",
         "relro",
         "stackprotector",
         "stackprotectorstrong"
      ],
      "kopensolaris-mips64r6" : [
         "bindnow",
         "format",
         "fortify",
         "relro",
         "stackprotector",
         "stackprotectorstrong"
      ],
      "kopensolaris-mips64r6el" : [
         "bindnow",
         "format",
         "fortify",
         "relro",
         "stackprotector",
         "stackprotectorstrong"
      ],
      "kopensolaris-mipsel" : [
         "bindnow",
         "format",
         "fortify",
         "relro",
         "stackprotector",
         "stackprotectorstrong"
      ],
      "kopensolaris-mipsr6" : [
         "bindnow",
         "format",
         "fortify",
         "relro",
         "stackprotector",
         "stackprotectorstrong"
      ],
      "kopensolaris-mipsr6el" : [
         "bindnow",
         "format",
         "fortify",
         "relro",
         "stackprotector",
         "stackprotectorstrong"
      ],
      "kopensolaris-nios2" : [
         "bindnow",
         "format",
         "fortify",
         "relro"
      ],
      "kopensolaris-or1k" : [
         "bindnow",
         "format",
         "fortify",
         "relro",
         "stackprotector",
         "stackprotectorstrong"
      ],
      "kopensolaris-powerpc" : [
         "bindnow",
         "format",
         "fortify",
         "relro",
         "stackprotector",
         "stackprotectorstrong"
      ],
      "kopensolaris-powerpcel" : [
         "bindnow",
         "format",
         "fortify",
         "relro",
         "stackprotector",
         "stackprotectorstrong"
      ],
      "kopensolaris-ppc64" : [
         "bindnow",
         "format",
         "fortify",
         "relro",
         "stackprotector",
         "stackprotectorstrong"
      ],
      "kopensolaris-ppc64el" : [
         "bindnow",
         "format",
         "fortify",
         "relro",
         "stackprotector",
         "stackprotectorstrong"
      ],
      "kopensolaris-riscv64" : [
         "bindnow",
         "format",
         "fortify",
         "relro",
         "stackprotector",
         "stackprotectorstrong"
      ],
      "kopensolaris-s390" : [
         "bindnow",
         "format",
         "fortify",
         "relro",
         "stackprotector",
         "stackprotectorstrong"
      ],
      "kopensolaris-s390x" : [
         "bindnow",
         "format",
         "fortify",
         "relro",
         "stackprotector",
         "stackprotectorstrong"
      ],
      "kopensolaris-sh3" : [
         "bindnow",
         "format",
         "fortify",
         "relro",
         "stackprotector",
         "stackprotectorstrong"
      ],
      "kopensolaris-sh3eb" : [
         "bindnow",
         "format",
         "fortify",
         "relro",
         "stackprotector",
         "stackprotectorstrong"
      ],
      "kopensolaris-sh4" : [
         "bindnow",
         "format",
         "fortify",
         "relro",
         "stackprotector",
         "stackprotectorstrong"
      ],
      "kopensolaris-sh4eb" : [
         "bindnow",
         "format",
         "fortify",
         "relro",
         "stackprotector",
         "stackprotectorstrong"
      ],
      "kopensolaris-sparc" : [
         "bindnow",
         "format",
         "fortify",
         "relro",
         "stackprotector",
         "stackprotectorstrong"
      ],
      "kopensolaris-sparc64" : [
         "bindnow",
         "format",
         "fortify",
         "relro",
         "stackprotector",
         "stackprotectorstrong"
      ],
      "kopensolaris-tilegx" : [
         "bindnow",
         "format",
         "fortify",
         "relro",
         "stackprotector",
         "stackprotectorstrong"
      ],
      "loong64" : [
         "bindnow",
         "format",
         "fortify",
         "pie",
         "relro",
         "stackprotector",
         "stackprotectorstrong"
      ],
      "m32r" : [
         "bindnow",
         "format",
         "fortify",
         "pie",
         "relro",
         "stackprotector",
         "stackprotectorstrong"
      ],
      "m68k" : [
         "bindnow",
         "format",
         "fortify",
         "pie",
         "relro",
         "stackprotector",
         "stackprotectorstrong"
      ],
      "mint-m68k" : [
         "bindnow",
         "format",
         "fortify",
         "relro",
         "stackprotector",
         "stackprotectorstrong"
      ],
      "mips" : [
         "bindnow",
         "format",
         "fortify",
         "pie",
         "relro",
         "stackprotector",
         "stackprotectorstrong"
      ],
      "mips64" : [
         "bindnow",
         "format",
         "fortify",
         "pie",
         "relro",
         "stackprotector",
         "stackprotectorstrong"
      ],
      "mips64el" : [
         "bindnow",
         "format",
         "fortify",
         "pie",
         "relro",
         "stackprotector",
         "stackprotectorstrong"
      ],
      "mips64r6" : [
         "bindnow",
         "format",
         "fortify",
         "pie",
         "relro",
         "stackprotector",
         "stackprotectorstrong"
      ],
      "mips64r6el" : [
         "bindnow",
         "format",
         "fortify",
         "pie",
         "relro",
         "stackprotector",
         "stackprotectorstrong"
      ],
      "mipsel" : [
         "bindnow",
         "format",
         "fortify",
         "pie",
         "relro",
         "stackprotector",
         "stackprotectorstrong"
      ],
      "mipsn32" : [
         "bindnow",
         "format",
         "fortify",
         "pie",
         "relro",
         "stackprotector",
         "stackprotectorstrong"
      ],
      "mipsn32el" : [
         "bindnow",
         "format",
         "fortify",
         "pie",
         "relro",
         "stackprotector",
         "stackprotectorstrong"
      ],
      "mipsn32r6" : [
         "bindnow",
         "format",
         "fortify",
         "pie",
         "relro",
         "stackprotector",
         "stackprotectorstrong"
      ],
      "mipsn32r6el" : [
         "bindnow",
         "format",
         "fortify",
         "pie",
         "relro",
         "stackprotector",
         "stackprotectorstrong"
      ],
      "mipsr6" : [
         "bindnow",
         "format",
         "fortify",
         "pie",
         "relro",
         "stackprotector",
         "stackprotectorstrong"
      ],
      "mipsr6el" : [
         "bindnow",
         "format",
         "fortify",
         "pie",
         "relro",
         "stackprotector",
         "stackprotectorstrong"
      ],
      "musl-linux-alpha" : [
         "bindnow",
         "format",
         "fortify",
         "pie",
         "relro"
      ],
      "musl-linux-amd64" : [
         "bindnow",
         "format",
         "fortify",
         "pie",
         "relro",
         "stackprotector",
         "stackprotectorstrong"
      ],
      "musl-linux-arc" : [
         "bindnow",
         "format",
         "fortify",
         "pie",
         "relro",
         "stackprotector",
         "stackprotectorstrong"
      ],
      "musl-linux-arm" : [
         "bindnow",
         "format",
         "fortify",
         "pie",
         "relro",
         "stackprotector",
         "stackprotectorstrong"
      ],
      "musl-linux-arm64" : [
         "bindnow",
         "format",
         "fortify",
         "pie",
         "relro",
         "stackprotector",
         "stackprotectorstrong"
      ],
      "musl-linux-armeb" : [
         "bindnow",
         "format",
         "fortify",
         "pie",
         "relro",
         "stackprotector",
         "stackprotectorstrong"
      ],
      "musl-linux-armhf" : [
         "bindnow",
         "format",
         "fortify",
         "pie",
         "relro",
         "stackprotector",
         "stackprotectorstrong"
      ],
      "musl-linux-avr32" : [
         "format",
         "fortify",
         "stackprotector",
         "stackprotectorstrong"
      ],
      "musl-linux-hppa" : [
         "format",
         "fortify"
      ],
      "musl-linux-i386" : [
         "bindnow",
         "format",
         "fortify",
         "pie",
         "relro",
         "stackprotector",
         "stackprotectorstrong"
      ],
      "musl-linux-ia64" : [
         "format",
         "fortify",
         "pie"
      ],
      "musl-linux-loong64" : [
         "bindnow",
         "format",
         "fortify",
         "pie",
         "relro",
         "stackprotector",
         "stackprotectorstrong"
      ],
      "musl-linux-m32r" : [
         "bindnow",
         "format",
         "fortify",
         "pie",
         "relro",
         "stackprotector",
         "stackprotectorstrong"
      ],
      "musl-linux-m68k" : [
         "bindnow",
         "format",
         "fortify",
         "pie",
         "relro",
         "stackprotector",
         "stackprotectorstrong"
      ],
      "musl-linux-mips" : [
         "bindnow",
         "format",
         "fortify",
         "pie",
         "relro",
         "stackprotector",
         "stackprotectorstrong"
      ],
      "musl-linux-mips64" : [
         "bindnow",
         "format",
         "fortify",
         "pie",
         "relro",
         "stackprotector",
         "stackprotectorstrong"
      ],
      "musl-linux-mips64el" : [
         "bindnow",
         "format",
         "fortify",
         "pie",
         "relro",
         "stackprotector",
         "stackprotectorstrong"
      ],
      "musl-linux-mips64r6" : [
         "bindnow",
         "format",
         "fortify",
         "pie",
         "relro",
         "stackprotector",
         "stackprotectorstrong"
      ],
      "musl-linux-mips64r6el" : [
         "bindnow",
         "format",
         "fortify",
         "pie",
         "relro",
         "stackprotector",
         "stackprotectorstrong"
      ],
      "musl-linux-mipsel" : [
         "bindnow",
         "format",
         "fortify",
         "pie",
         "relro",
         "stackprotector",
         "stackprotectorstrong"
      ],
      "musl-linux-mipsr6" : [
         "bindnow",
         "format",
         "fortify",
         "pie",
         "relro",
         "stackprotector",
         "stackprotectorstrong"
      ],
      "musl-linux-mipsr6el" : [
         "bindnow",
         "format",
         "fortify",
         "pie",
         "relro",
         "stackprotector",
         "stackprotectorstrong"
      ],
      "musl-linux-nios2" : [
         "bindnow",
         "format",
         "fortify",
         "pie",
         "relro"
      ],
      "musl-linux-or1k" : [
         "bindnow",
         "format",
         "fortify",
         "pie",
         "relro",
         "stackprotector",
         "stackprotectorstrong"
      ],
      "musl-linux-powerpc" : [
         "bindnow",
         "format",
         "fortify",
         "pie",
         "relro",
         "stackprotector",
         "stackprotectorstrong"
      ],
      "musl-linux-powerpcel" : [
         "bindnow",
         "format",
         "fortify",
         "pie",
         "relro",
         "stackprotector",
         "stackprotectorstrong"
      ],
      "musl-linux-ppc64" : [
         "bindnow",
         "format",
         "fortify",
         "pie",
         "relro",
         "stackprotector",
         "stackprotectorstrong"
      ],
      "musl-linux-ppc64el" : [
         "bindnow",
         "format",
         "fortify",
         "pie",
         "relro",
         "stackprotector",
         "stackprotectorstrong"
      ],
      "musl-linux-riscv64" : [
         "bindnow",
         "format",
         "fortify",
         "pie",
         "relro",
         "stackprotector",
         "stackprotectorstrong"
      ],
      "musl-linux-s390" : [
         "bindnow",
         "format",
         "fortify",
         "pie",
         "relro",
         "stackprotector",
         "stackprotectorstrong"
      ],
      "musl-linux-s390x" : [
         "bindnow",
         "format",
         "fortify",
         "pie",
         "relro",
         "stackprotector",
         "stackprotectorstrong"
      ],
      "musl-linux-sh3" : [
         "bindnow",
         "format",
         "fortify",
         "pie",
         "relro",
         "stackprotector",
         "stackprotectorstrong"
      ],
      "musl-linux-sh3eb" : [
         "bindnow",
         "format",
         "fortify",
         "pie",
         "relro",
         "stackprotector",
         "stackprotectorstrong"
      ],
      "musl-linux-sh4" : [
         "bindnow",
         "format",
         "fortify",
         "pie",
         "relro",
         "stackprotector",
         "stackprotectorstrong"
      ],
      "musl-linux-sh4eb" : [
         "bindnow",
         "format",
         "fortify",
         "pie",
         "relro",
         "stackprotector",
         "stackprotectorstrong"
      ],
      "musl-linux-sparc" : [
         "bindnow",
         "format",
         "fortify",
         "pie",
         "relro",
         "stackprotector",
         "stackprotectorstrong"
      ],
      "musl-linux-sparc64" : [
         "bindnow",
         "format",
         "fortify",
         "pie",
         "relro",
         "stackprotector",
         "stackprotectorstrong"
      ],
      "musl-linux-tilegx" : [
         "bindnow",
         "format",
         "fortify",
         "pie",
         "relro",
         "stackprotector",
         "stackprotectorstrong"
      ],
      "netbsd-alpha" : [
         "bindnow",
         "format",
         "fortify",
         "relro"
      ],
      "netbsd-amd64" : [
         "bindnow",
         "format",
         "fortify",
         "relro",
         "stackprotector",
         "stackprotectorstrong"
      ],
      "netbsd-arc" : [
         "bindnow",
         "format",
         "fortify",
         "relro",
         "stackprotector",
         "stackprotectorstrong"
      ],
      "netbsd-arm" : [
         "bindnow",
         "format",
         "fortify",
         "relro",
         "stackprotector",
         "stackprotectorstrong"
      ],
      "netbsd-arm64" : [
         "bindnow",
         "format",
         "fortify",
         "relro",
         "stackprotector",
         "stackprotectorstrong"
      ],
      "netbsd-armeb" : [
         "bindnow",
         "format",
         "fortify",
         "relro",
         "stackprotector",
         "stackprotectorstrong"
      ],
      "netbsd-avr32" : [
         "format",
         "fortify",
         "stackprotector",
         "stackprotectorstrong"
      ],
      "netbsd-hppa" : [
         "format",
         "fortify"
      ],
      "netbsd-i386" : [
         "bindnow",
         "format",
         "fortify",
         "relro",
         "stackprotector",
         "stackprotectorstrong"
      ],
      "netbsd-ia64" : [
         "format",
         "fortify"
      ],
      "netbsd-loong64" : [
         "bindnow",
         "format",
         "fortify",
         "relro",
         "stackprotector",
         "stackprotectorstrong"
      ],
      "netbsd-m32r" : [
         "bindnow",
         "format",
         "fortify",
         "relro",
         "stackprotector",
         "stackprotectorstrong"
      ],
      "netbsd-m68k" : [
         "bindnow",
         "format",
         "fortify",
         "relro",
         "stackprotector",
         "stackprotectorstrong"
      ],
      "netbsd-mips" : [
         "bindnow",
         "format",
         "fortify",
         "relro",
         "stackprotector",
         "stackprotectorstrong"
      ],
      "netbsd-mips64" : [
         "bindnow",
         "format",
         "fortify",
         "relro",
         "stackprotector",
         "stackprotectorstrong"
      ],
      "netbsd-mips64el" : [
         "bindnow",
         "format",
         "fortify",
         "relro",
         "stackprotector",
         "stackprotectorstrong"
      ],
      "netbsd-mips64r6" : [
         "bindnow",
         "format",
         "fortify",
         "relro",
         "stackprotector",
         "stackprotectorstrong"
      ],
      "netbsd-mips64r6el" : [
         "bindnow",
         "format",
         "fortify",
         "relro",
         "stackprotector",
         "stackprotectorstrong"
      ],
      "netbsd-mipsel" : [
         "bindnow",
         "format",
         "fortify",
         "relro",
         "stackprotector",
         "stackprotectorstrong"
      ],
      "netbsd-mipsr6" : [
         "bindnow",
         "format",
         "fortify",
         "relro",
         "stackprotector",
         "stackprotectorstrong"
      ],
      "netbsd-mipsr6el" : [
         "bindnow",
         "format",
         "fortify",
         "relro",
         "stackprotector",
         "stackprotectorstrong"
      ],
      "netbsd-nios2" : [
         "bindnow",
         "format",
         "fortify",
         "relro"
      ],
      "netbsd-or1k" : [
         "bindnow",
         "format",
         "fortify",
         "relro",
         "stackprotector",
         "stackprotectorstrong"
      ],
      "netbsd-powerpc" : [
         "bindnow",
         "format",
         "fortify",
         "relro",
         "stackprotector",
         "stackprotectorstrong"
      ],
      "netbsd-powerpcel" : [
         "bindnow",
         "format",
         "fortify",
         "relro",
         "stackprotector",
         "stackprotectorstrong"
      ],
      "netbsd-ppc64" : [
         "bindnow",
         "format",
         "fortify",
         "relro",
         "stackprotector",
         "stackprotectorstrong"
      ],
      "netbsd-ppc64el" : [
         "bindnow",
         "format",
         "fortify",
         "relro",
         "stackprotector",
         "stackprotectorstrong"
      ],
      "netbsd-riscv64" : [
         "bindnow",
         "format",
         "fortify",
         "relro",
         "stackprotector",
         "stackprotectorstrong"
      ],
      "netbsd-s390" : [
         "bindnow",
         "format",
         "fortify",
         "relro",
         "stackprotector",
         "stackprotectorstrong"
      ],
      "netbsd-s390x" : [
         "bindnow",
         "format",
         "fortify",
         "relro",
         "stackprotector",
         "stackprotectorstrong"
      ],
      "netbsd-sh3" : [
         "bindnow",
         "format",
         "fortify",
         "relro",
         "stackprotector",
         "stackprotectorstrong"
      ],
      "netbsd-sh3eb" : [
         "bindnow",
         "format",
         "fortify",
         "relro",
         "stackprotector",
         "stackprotectorstrong"
      ],
      "netbsd-sh4" : [
         "bindnow",
         "format",
         "fortify",
         "relro",
         "stackprotector",
         "stackprotectorstrong"
      ],
      "netbsd-sh4eb" : [
         "bindnow",
         "format",
         "fortify",
         "relro",
         "stackprotector",
         "stackprotectorstrong"
      ],
      "netbsd-sparc" : [
         "bindnow",
         "format",
         "fortify",
         "relro",
         "stackprotector",
         "stackprotectorstrong"
      ],
      "netbsd-sparc64" : [
         "bindnow",
         "format",
         "fortify",
         "relro",
         "stackprotector",
         "stackprotectorstrong"
      ],
      "netbsd-tilegx" : [
         "bindnow",
         "format",
         "fortify",
         "relro",
         "stackprotector",
         "stackprotectorstrong"
      ],
      "nios2" : [
         "bindnow",
         "format",
         "fortify",
         "pie",
         "relro"
      ],
      "openbsd-alpha" : [
         "bindnow",
         "format",
         "fortify",
         "relro"
      ],
      "openbsd-amd64" : [
         "bindnow",
         "format",
         "fortify",
         "relro",
         "stackprotector",
         "stackprotectorstrong"
      ],
      "openbsd-arc" : [
         "bindnow",
         "format",
         "fortify",
         "relro",
         "stackprotector",
         "stackprotectorstrong"
      ],
      "openbsd-arm" : [
         "bindnow",
         "format",
         "fortify",
         "relro",
         "stackprotector",
         "stackprotectorstrong"
      ],
      "openbsd-arm64" : [
         "bindnow",
         "format",
         "fortify",
         "relro",
         "stackprotector",
         "stackprotectorstrong"
      ],
      "openbsd-armeb" : [
         "bindnow",
         "format",
         "fortify",
         "relro",
         "stackprotector",
         "stackprotectorstrong"
      ],
      "openbsd-avr32" : [
         "format",
         "fortify",
         "stackprotector",
         "stackprotectorstrong"
      ],
      "openbsd-hppa" : [
         "format",
         "fortify"
      ],
      "openbsd-i386" : [
         "bindnow",
         "format",
         "fortify",
         "relro",
         "stackprotector",
         "stackprotectorstrong"
      ],
      "openbsd-ia64" : [
         "format",
         "fortify"
      ],
      "openbsd-loong64" : [
         "bindnow",
         "format",
         "fortify",
         "relro",
         "stackprotector",
         "stackprotectorstrong"
      ],
      "openbsd-m32r" : [
         "bindnow",
         "format",
         "fortify",
         "relro",
         "stackprotector",
         "stackprotectorstrong"
      ],
      "openbsd-m68k" : [
         "bindnow",
         "format",
         "fortify",
         "relro",
         "stackprotector",
         "stackprotectorstrong"
      ],
      "openbsd-mips" : [
         "bindnow",
         "format",
         "fortify",
         "relro",
         "stackprotector",
         "stackprotectorstrong"
      ],
      "openbsd-mips64" : [
         "bindnow",
         "format",
         "fortify",
         "relro",
         "stackprotector",
         "stackprotectorstrong"
      ],
      "openbsd-mips64el" : [
         "bindnow",
         "format",
         "fortify",
         "relro",
         "stackprotector",
         "stackprotectorstrong"
      ],
      "openbsd-mips64r6" : [
         "bindnow",
         "format",
         "fortify",
         "relro",
         "stackprotector",
         "stackprotectorstrong"
      ],
      "openbsd-mips64r6el" : [
         "bindnow",
         "format",
         "fortify",
         "relro",
         "stackprotector",
         "stackprotectorstrong"
      ],
      "openbsd-mipsel" : [
         "bindnow",
         "format",
         "fortify",
         "relro",
         "stackprotector",
         "stackprotectorstrong"
      ],
      "openbsd-mipsr6" : [
         "bindnow",
         "format",
         "fortify",
         "relro",
         "stackprotector",
         "stackprotectorstrong"
      ],
      "openbsd-mipsr6el" : [
         "bindnow",
         "format",
         "fortify",
         "relro",
         "stackprotector",
         "stackprotectorstrong"
      ],
      "openbsd-nios2" : [
         "bindnow",
         "format",
         "fortify",
         "relro"
      ],
      "openbsd-or1k" : [
         "bindnow",
         "format",
         "fortify",
         "relro",
         "stackprotector",
         "stackprotectorstrong"
      ],
      "openbsd-powerpc" : [
         "bindnow",
         "format",
         "fortify",
         "relro",
         "stackprotector",
         "stackprotectorstrong"
      ],
      "openbsd-powerpcel" : [
         "bindnow",
         "format",
         "fortify",
         "relro",
         "stackprotector",
         "stackprotectorstrong"
      ],
      "openbsd-ppc64" : [
         "bindnow",
         "format",
         "fortify",
         "relro",
         "stackprotector",
         "stackprotectorstrong"
      ],
      "openbsd-ppc64el" : [
         "bindnow",
         "format",
         "fortify",
         "relro",
         "stackprotector",
         "stackprotectorstrong"
      ],
      "openbsd-riscv64" : [
         "bindnow",
         "format",
         "fortify",
         "relro",
         "stackprotector",
         "stackprotectorstrong"
      ],
      "openbsd-s390" : [
         "bindnow",
         "format",
         "fortify",
         "relro",
         "stackprotector",
         "stackprotectorstrong"
      ],
      "openbsd-s390x" : [
         "bindnow",
         "format",
         "fortify",
         "relro",
         "stackprotector",
         "stackprotectorstrong"
      ],
      "openbsd-sh3" : [
         "bindnow",
         "format",
         "fortify",
         "relro",
         "stackprotector",
         "stackprotectorstrong"
      ],
      "openbsd-sh3eb" : [
         "bindnow",
         "format",
         "fortify",
         "relro",
         "stackprotector",
         "stackprotectorstrong"
      ],
      "openbsd-sh4" : [
         "bindnow",
         "format",
         "fortify",
         "relro",
         "stackprotector",
         "stackprotectorstrong"
      ],
      "openbsd-sh4eb" : [
         "bindnow",
         "format",
         "fortify",
         "relro",
         "stackprotector",
         "stackprotectorstrong"
      ],
      "openbsd-sparc" : [
         "bindnow",
         "format",
         "fortify",
         "relro",
         "stackprotector",
         "stackprotectorstrong"
      ],
      "openbsd-sparc64" : [
         "bindnow",
         "format",
         "fortify",
         "relro",
         "stackprotector",
         "stackprotectorstrong"
      ],
      "openbsd-tilegx" : [
         "bindnow",
         "format",
         "fortify",
         "relro",
         "stackprotector",
         "stackprotectorstrong"
      ],
      "or1k" : [
         "bindnow",
         "format",
         "fortify",
         "pie",
         "relro",
         "stackprotector",
         "stackprotectorstrong"
      ],
      "powerpc" : [
         "bindnow",
         "format",
         "fortify",
         "pie",
         "relro",
         "stackprotector",
         "stackprotectorstrong"
      ],
      "powerpcel" : [
         "bindnow",
         "format",
         "fortify",
         "pie",
         "relro",
         "stackprotector",
         "stackprotectorstrong"
      ],
      "powerpcspe" : [
         "bindnow",
         "format",
         "fortify",
         "pie",
         "relro",
         "stackprotector",
         "stackprotectorstrong"
      ],
      "ppc64" : [
         "bindnow",
         "format",
         "fortify",
         "pie",
         "relro",
         "stackprotector",
         "stackprotectorstrong"
      ],
      "ppc64el" : [
         "bindnow",
         "format",
         "fortify",
         "pie",
         "relro",
         "stackprotector",
         "stackprotectorstrong"
      ],
      "riscv64" : [
         "bindnow",
         "format",
         "fortify",
         "pie",
         "relro",
         "stackprotector",
         "stackprotectorstrong"
      ],
      "s390" : [
         "bindnow",
         "format",
         "fortify",
         "pie",
         "relro",
         "stackprotector",
         "stackprotectorstrong"
      ],
      "s390x" : [
         "bindnow",
         "format",
         "fortify",
         "pie",
         "relro",
         "stackprotector",
         "stackprotectorstrong"
      ],
      "sh3" : [
         "bindnow",
         "format",
         "fortify",
         "pie",
         "relro",
         "stackprotector",
         "stackprotectorstrong"
      ],
      "sh3eb" : [
         "bindnow",
         "format",
         "fortify",
         "pie",
         "relro",
         "stackprotector",
         "stackprotectorstrong"
      ],
      "sh4" : [
         "bindnow",
         "format",
         "fortify",
         "pie",
         "relro",
         "stackprotector",
         "stackprotectorstrong"
      ],
      "sh4eb" : [
         "bindnow",
         "format",
         "fortify",
         "pie",
         "relro",
         "stackprotector",
         "stackprotectorstrong"
      ],
      "solaris-alpha" : [
         "bindnow",
         "format",
         "fortify",
         "relro"
      ],
      "solaris-amd64" : [
         "bindnow",
         "format",
         "fortify",
         "relro",
         "stackprotector",
         "stackprotectorstrong"
      ],
      "solaris-arc" : [
         "bindnow",
         "format",
         "fortify",
         "relro",
         "stackprotector",
         "stackprotectorstrong"
      ],
      "solaris-arm" : [
         "bindnow",
         "format",
         "fortify",
         "relro",
         "stackprotector",
         "stackprotectorstrong"
      ],
      "solaris-arm64" : [
         "bindnow",
         "format",
         "fortify",
         "relro",
         "stackprotector",
         "stackprotectorstrong"
      ],
      "solaris-armeb" : [
         "bindnow",
         "format",
         "fortify",
         "relro",
         "stackprotector",
         "stackprotectorstrong"
      ],
      "solaris-avr32" : [
         "format",
         "fortify",
         "stackprotector",
         "stackprotectorstrong"
      ],
      "solaris-hppa" : [
         "format",
         "fortify"
      ],
      "solaris-i386" : [
         "bindnow",
         "format",
         "fortify",
         "relro",
         "stackprotector",
         "stackprotectorstrong"
      ],
      "solaris-ia64" : [
         "format",
         "fortify"
      ],
      "solaris-loong64" : [
         "bindnow",
         "format",
         "fortify",
         "relro",
         "stackprotector",
         "stackprotectorstrong"
      ],
      "solaris-m32r" : [
         "bindnow",
         "format",
         "fortify",
         "relro",
         "stackprotector",
         "stackprotectorstrong"
      ],
      "solaris-m68k" : [
         "bindnow",
         "format",
         "fortify",
         "relro",
         "stackprotector",
         "stackprotectorstrong"
      ],
      "solaris-mips" : [
         "bindnow",
         "format",
         "fortify",
         "relro",
         "stackprotector",
         "stackprotectorstrong"
      ],
      "solaris-mips64" : [
         "bindnow",
         "format",
         "fortify",
         "relro",
         "stackprotector",
         "stackprotectorstrong"
      ],
      "solaris-mips64el" : [
         "bindnow",
         "format",
         "fortify",
         "relro",
         "stackprotector",
         "stackprotectorstrong"
      ],
      "solaris-mips64r6" : [
         "bindnow",
         "format",
         "fortify",
         "relro",
         "stackprotector",
         "stackprotectorstrong"
      ],
      "solaris-mips64r6el" : [
         "bindnow",
         "format",
         "fortify",
         "relro",
         "stackprotector",
         "stackprotectorstrong"
      ],
      "solaris-mipsel" : [
         "bindnow",
         "format",
         "fortify",
         "relro",
         "stackprotector",
         "stackprotectorstrong"
      ],
      "solaris-mipsr6" : [
         "bindnow",
         "format",
         "fortify",
         "relro",
         "stackprotector",
         "stackprotectorstrong"
      ],
      "solaris-mipsr6el" : [
         "bindnow",
         "format",
         "fortify",
         "relro",
         "stackprotector",
         "stackprotectorstrong"
      ],
      "solaris-nios2" : [
         "bindnow",
         "format",
         "fortify",
         "relro"
      ],
      "solaris-or1k" : [
         "bindnow",
         "format",
         "fortify",
         "relro",
         "stackprotector",
         "stackprotectorstrong"
      ],
      "solaris-powerpc" : [
         "bindnow",
         "format",
         "fortify",
         "relro",
         "stackprotector",
         "stackprotectorstrong"
      ],
      "solaris-powerpcel" : [
         "bindnow",
         "format",
         "fortify",
         "relro",
         "stackprotector",
         "stackprotectorstrong"
      ],
      "solaris-ppc64" : [
         "bindnow",
         "format",
         "fortify",
         "relro",
         "stackprotector",
         "stackprotectorstrong"
      ],
      "solaris-ppc64el" : [
         "bindnow",
         "format",
         "fortify",
         "relro",
         "stackprotector",
         "stackprotectorstrong"
      ],
      "solaris-riscv64" : [
         "bindnow",
         "format",
         "fortify",
         "relro",
         "stackprotector",
         "stackprotectorstrong"
      ],
      "solaris-s390" : [
         "bindnow",
         "format",
         "fortify",
         "relro",
         "stackprotector",
         "stackprotectorstrong"
      ],
      "solaris-s390x" : [
         "bindnow",
         "format",
         "fortify",
         "relro",
         "stackprotector",
         "stackprotectorstrong"
      ],
      "solaris-sh3" : [
         "bindnow",
         "format",
         "fortify",
         "relro",
         "stackprotector",
         "stackprotectorstrong"
      ],
      "solaris-sh3eb" : [
         "bindnow",
         "format",
         "fortify",
         "relro",
         "stackprotector",
         "stackprotectorstrong"
      ],
      "solaris-sh4" : [
         "bindnow",
         "format",
         "fortify",
         "relro",
         "stackprotector",
         "stackprotectorstrong"
      ],
      "solaris-sh4eb" : [
         "bindnow",
         "format",
         "fortify",
         "relro",
         "stackprotector",
         "stackprotectorstrong"
      ],
      "solaris-sparc" : [
         "bindnow",
         "format",
         "fortify",
         "relro",
         "stackprotector",
         "stackprotectorstrong"
      ],
      "solaris-sparc64" : [
         "bindnow",
         "format",
         "fortify",
         "relro",
         "stackprotector",
         "stackprotectorstrong"
      ],
      "solaris-tilegx" : [
         "bindnow",
         "format",
         "fortify",
         "relro",
         "stackprotector",
         "stackprotectorstrong"
      ],
      "sparc" : [
         "bindnow",
         "format",
         "fortify",
         "pie",
         "relro",
         "stackprotector",
         "stackprotectorstrong"
      ],
      "sparc64" : [
         "bindnow",
         "format",
         "fortify",
         "pie",
         "relro",
         "stackprotector",
         "stackprotectorstrong"
      ],
      "tilegx" : [
         "bindnow",
         "format",
         "fortify",
         "pie",
         "relro",
         "stackprotector",
         "stackprotectorstrong"
      ],
      "uclibc-linux-alpha" : [
         "bindnow",
         "format",
         "fortify",
         "pie",
         "relro"
      ],
      "uclibc-linux-amd64" : [
         "bindnow",
         "format",
         "fortify",
         "pie",
         "relro",
         "stackprotector",
         "stackprotectorstrong"
      ],
      "uclibc-linux-arc" : [
         "bindnow",
         "format",
         "fortify",
         "pie",
         "relro",
         "stackprotector",
         "stackprotectorstrong"
      ],
      "uclibc-linux-arm" : [
         "bindnow",
         "format",
         "fortify",
         "pie",
         "relro",
         "stackprotector",
         "stackprotectorstrong"
      ],
      "uclibc-linux-arm64" : [
         "bindnow",
         "format",
         "fortify",
         "pie",
         "relro",
         "stackprotector",
         "stackprotectorstrong"
      ],
      "uclibc-linux-armeb" : [
         "bindnow",
         "format",
         "fortify",
         "pie",
         "relro",
         "stackprotector",
         "stackprotectorstrong"
      ],
      "uclibc-linux-armel" : [
         "bindnow",
         "format",
         "fortify",
         "pie",
         "relro",
         "stackprotector",
         "stackprotectorstrong"
      ],
      "uclibc-linux-avr32" : [
         "format",
         "fortify",
         "stackprotector",
         "stackprotectorstrong"
      ],
      "uclibc-linux-hppa" : [
         "format",
         "fortify"
      ],
      "uclibc-linux-i386" : [
         "bindnow",
         "format",
         "fortify",
         "pie",
         "relro",
         "stackprotector",
         "stackprotectorstrong"
      ],
      "uclibc-linux-ia64" : [
         "format",
         "fortify",
         "pie"
      ],
      "uclibc-linux-loong64" : [
         "bindnow",
         "format",
         "fortify",
         "pie",
         "relro",
         "stackprotector",
         "stackprotectorstrong"
      ],
      "uclibc-linux-m32r" : [
         "bindnow",
         "format",
         "fortify",
         "pie",
         "relro",
         "stackprotector",
         "stackprotectorstrong"
      ],
      "uclibc-linux-m68k" : [
         "bindnow",
         "format",
         "fortify",
         "pie",
         "relro",
         "stackprotector",
         "stackprotectorstrong"
      ],
      "uclibc-linux-mips" : [
         "bindnow",
         "format",
         "fortify",
         "pie",
         "relro",
         "stackprotector",
         "stackprotectorstrong"
      ],
      "uclibc-linux-mips64" : [
         "bindnow",
         "format",
         "fortify",
         "pie",
         "relro",
         "stackprotector",
         "stackprotectorstrong"
      ],
      "uclibc-linux-mips64el" : [
         "bindnow",
         "format",
         "fortify",
         "pie",
         "relro",
         "stackprotector",
         "stackprotectorstrong"
      ],
      "uclibc-linux-mips64r6" : [
         "bindnow",
         "format",
         "fortify",
         "pie",
         "relro",
         "stackprotector",
         "stackprotectorstrong"
      ],
      "uclibc-linux-mips64r6el" : [
         "bindnow",
         "format",
         "fortify",
         "pie",
         "relro",
         "stackprotector",
         "stackprotectorstrong"
      ],
      "uclibc-linux-mipsel" : [
         "bindnow",
         "format",
         "fortify",
         "pie",
         "relro",
         "stackprotector",
         "stackprotectorstrong"
      ],
      "uclibc-linux-mipsr6" : [
         "bindnow",
         "format",
         "fortify",
         "pie",
         "relro",
         "stackprotector",
         "stackprotectorstrong"
      ],
      "uclibc-linux-mipsr6el" : [
         "bindnow",
         "format",
         "fortify",
         "pie",
         "relro",
         "stackprotector",
         "stackprotectorstrong"
      ],
      "uclibc-linux-nios2" : [
         "bindnow",
         "format",
         "fortify",
         "pie",
         "relro"
      ],
      "uclibc-linux-or1k" : [
         "bindnow",
         "format",
         "fortify",
         "pie",
         "relro",
         "stackprotector",
         "stackprotectorstrong"
      ],
      "uclibc-linux-powerpc" : [
         "bindnow",
         "format",
         "fortify",
         "pie",
         "relro",
         "stackprotector",
         "stackprotectorstrong"
      ],
      "uclibc-linux-powerpcel" : [
         "bindnow",
         "format",
         "fortify",
         "pie",
         "relro",
         "stackprotector",
         "stackprotectorstrong"
      ],
      "uclibc-linux-ppc64" : [
         "bindnow",
         "format",
         "fortify",
         "pie",
         "relro",
         "stackprotector",
         "stackprotectorstrong"
      ],
      "uclibc-linux-ppc64el" : [
         "bindnow",
         "format",
         "fortify",
         "pie",
         "relro",
         "stackprotector",
         "stackprotectorstrong"
      ],
      "uclibc-linux-riscv64" : [
         "bindnow",
         "format",
         "fortify",
         "pie",
         "relro",
         "stackprotector",
         "stackprotectorstrong"
      ],
      "uclibc-linux-s390" : [
         "bindnow",
         "format",
         "fortify",
         "pie",
         "relro",
         "stackprotector",
         "stackprotectorstrong"
      ],
      "uclibc-linux-s390x" : [
         "bindnow",
         "format",
         "fortify",
         "pie",
         "relro",
         "stackprotector",
         "stackprotectorstrong"
      ],
      "uclibc-linux-sh3" : [
         "bindnow",
         "format",
         "fortify",
         "pie",
         "relro",
         "stackprotector",
         "stackprotectorstrong"
      ],
      "uclibc-linux-sh3eb" : [
         "bindnow",
         "format",
         "fortify",
         "pie",
         "relro",
         "stackprotector",
         "stackprotectorstrong"
      ],
      "uclibc-linux-sh4" : [
         "bindnow",
         "format",
         "fortify",
         "pie",
         "relro",
         "stackprotector",
         "stackprotectorstrong"
      ],
      "uclibc-linux-sh4eb" : [
         "bindnow",
         "format",
         "fortify",
         "pie",
         "relro",
         "stackprotector",
         "stackprotectorstrong"
      ],
      "uclibc-linux-sparc" : [
         "bindnow",
         "format",
         "fortify",
         "pie",
         "relro",
         "stackprotector",
         "stackprotectorstrong"
      ],
      "uclibc-linux-sparc64" : [
         "bindnow",
         "format",
         "fortify",
         "pie",
         "relro",
         "stackprotector",
         "stackprotectorstrong"
      ],
      "uclibc-linux-tilegx" : [
         "bindnow",
         "format",
         "fortify",
         "pie",
         "relro",
         "stackprotector",
         "stackprotectorstrong"
      ],
      "uclinux-alpha" : [
         "bindnow",
         "format",
         "fortify",
         "relro"
      ],
      "uclinux-amd64" : [
         "bindnow",
         "format",
         "fortify",
         "relro",
         "stackprotector",
         "stackprotectorstrong"
      ],
      "uclinux-arc" : [
         "bindnow",
         "format",
         "fortify",
         "relro",
         "stackprotector",
         "stackprotectorstrong"
      ],
      "uclinux-arm" : [
         "bindnow",
         "format",
         "fortify",
         "relro",
         "stackprotector",
         "stackprotectorstrong"
      ],
      "uclinux-arm64" : [
         "bindnow",
         "format",
         "fortify",
         "relro",
         "stackprotector",
         "stackprotectorstrong"
      ],
      "uclinux-armeb" : [
         "bindnow",
         "format",
         "fortify",
         "relro",
         "stackprotector",
         "stackprotectorstrong"
      ],
      "uclinux-armel" : [
         "bindnow",
         "format",
         "fortify",
         "relro",
         "stackprotector",
         "stackprotectorstrong"
      ],
      "uclinux-avr32" : [
         "format",
         "fortify",
         "stackprotector",
         "stackprotectorstrong"
      ],
      "uclinux-hppa" : [
         "format",
         "fortify"
      ],
      "uclinux-i386" : [
         "bindnow",
         "format",
         "fortify",
         "relro",
         "stackprotector",
         "stackprotectorstrong"
      ],
      "uclinux-ia64" : [
         "format",
         "fortify"
      ],
      "uclinux-loong64" : [
         "bindnow",
         "format",
         "fortify",
         "relro",
         "stackprotector",
         "stackprotectorstrong"
      ],
      "uclinux-m32r" : [
         "bindnow",
         "format",
         "fortify",
         "relro",
         "stackprotector",
         "stackprotectorstrong"
      ],
      "uclinux-m68k" : [
         "bindnow",
         "format",
         "fortify",
         "relro",
         "stackprotector",
         "stackprotectorstrong"
      ],
      "uclinux-mips" : [
         "bindnow",
         "format",
         "fortify",
         "relro",
         "stackprotector",
         "stackprotectorstrong"
      ],
      "uclinux-mips64" : [
         "bindnow",
         "format",
         "fortify",
         "relro",
         "stackprotector",
         "stackprotectorstrong"
      ],
      "uclinux-mips64el" : [
         "bindnow",
         "format",
         "fortify",
         "relro",
         "stackprotector",
         "stackprotectorstrong"
      ],
      "uclinux-mips64r6" : [
         "bindnow",
         "format",
         "fortify",
         "relro",
         "stackprotector",
         "stackprotectorstrong"
      ],
      "uclinux-mips64r6el" : [
         "bindnow",
         "format",
         "fortify",
         "relro",
         "stackprotector",
         "stackprotectorstrong"
      ],
      "uclinux-mipsel" : [
         "bindnow",
         "format",
         "fortify",
         "relro",
         "stackprotector",
         "stackprotectorstrong"
      ],
      "uclinux-mipsr6" : [
         "bindnow",
         "format",
         "fortify",
         "relro",
         "stackprotector",
         "stackprotectorstrong"
      ],
      "uclinux-mipsr6el" : [
         "bindnow",
         "format",
         "fortify",
         "relro",
         "stackprotector",
         "stackprotectorstrong"
      ],
      "uclinux-nios2" : [
         "bindnow",
         "format",
         "fortify",
         "relro"
      ],
      "uclinux-or1k" : [
         "bindnow",
         "format",
         "fortify",
         "relro",
         "stackprotector",
         "stackprotectorstrong"
      ],
      "uclinux-powerpc" : [
         "bindnow",
         "format",
         "fortify",
         "relro",
         "stackprotector",
         "stackprotectorstrong"
      ],
      "uclinux-powerpcel" : [
         "bindnow",
         "format",
         "fortify",
         "relro",
         "stackprotector",
         "stackprotectorstrong"
      ],
      "uclinux-ppc64" : [
         "bindnow",
         "format",
         "fortify",
         "relro",
         "stackprotector",
         "stackprotectorstrong"
      ],
      "uclinux-ppc64el" : [
         "bindnow",
         "format",
         "fortify",
         "relro",
         "stackprotector",
         "stackprotectorstrong"
      ],
      "uclinux-riscv64" : [
         "bindnow",
         "format",
         "fortify",
         "relro",
         "stackprotector",
         "stackprotectorstrong"
      ],
      "uclinux-s390" : [
         "bindnow",
         "format",
         "fortify",
         "relro",
         "stackprotector",
         "stackprotectorstrong"
      ],
      "uclinux-s390x" : [
         "bindnow",
         "format",
         "fortify",
         "relro",
         "stackprotector",
         "stackprotectorstrong"
      ],
      "uclinux-sh3" : [
         "bindnow",
         "format",
         "fortify",
         "relro",
         "stackprotector",
         "stackprotectorstrong"
      ],
      "uclinux-sh3eb" : [
         "bindnow",
         "format",
         "fortify",
         "relro",
         "stackprotector",
         "stackprotectorstrong"
      ],
      "uclinux-sh4" : [
         "bindnow",
         "format",
         "fortify",
         "relro",
         "stackprotector",
         "stackprotectorstrong"
      ],
      "uclinux-sh4eb" : [
         "bindnow",
         "format",
         "fortify",
         "relro",
         "stackprotector",
         "stackprotectorstrong"
      ],
      "uclinux-sparc" : [
         "bindnow",
         "format",
         "fortify",
         "relro",
         "stackprotector",
         "stackprotectorstrong"
      ],
      "uclinux-sparc64" : [
         "bindnow",
         "format",
         "fortify",
         "relro",
         "stackprotector",
         "stackprotectorstrong"
      ],
      "uclinux-tilegx" : [
         "bindnow",
         "format",
         "fortify",
         "relro",
         "stackprotector",
         "stackprotectorstrong"
      ],
      "x32" : [
         "bindnow",
         "format",
         "fortify",
         "pie",
         "relro",
         "stackprotector",
         "stackprotectorstrong"
      ]
   }
}
